[{
  "id": 1,
  "name": "John",
  "surname": "Doe",
  "profession": "Developer",
  "country": "Spain",
  "document": "NIF",
  "identificationCode": "77228311X",
  "entity": "Natural",
  "city": "Málaga",
  "address": "Fake street 123",
  "postcode": 29010,
  "email": "foo@bar.com",
  "telephone": 777712239
},
{
  "id": 2,
  "name": "Fake Enterprise",
  "document": "CIF",
  "identificationCode": "B16617367",
  "entity": "Legal",
  "email": "bar@foo.com",
  "telephone": 666622241
}]